{
	"info": {
		"_postman_id": "8d33f555-30d2-4935-9171-b4b0e8b38605",
		"name": "tupperware remove guest or item from party",
		"schema": "https://schema.getpostman.com/json/collection/v2.1.0/collection.json"
	},
	"item": [
		{
			"name": "party",
			"item": [
				{
					"name": "auth",
					"event": [
						{
							"listen": "test",
							"script": {
								"id": "36968b36-237b-4ea7-9245-50167e6b07b0",
								"exec": [
									"var jsonData = JSON.parse(responseBody);",
									"postman.setEnvironmentVariable(\"token\", jsonData.token);"
								],
								"type": "text/javascript"
							}
						}
					],
					"request": {
						"method": "POST",
						"header": [
							{
								"key": "Content-Type",
								"value": "application/x-www-form-urlencoded",
								"type": "text"
							}
						],
						"body": {
							"mode": "raw",
							"raw": "i_u={{i_u}}&pwd={{pwd}}"
						},
						"url": {
							"raw": "{{url}}api/login_check",
							"host": [
								"{{url}}api"
							],
							"path": [
								"login_check"
							]
						}
					},
					"response": []
				},
				{
					"name": "get schema",
					"event": [
						{
							"listen": "test",
							"script": {
								"id": "976eb77d-5e90-4cdc-b5c5-bb28b708bfaf",
								"exec": [
									"console.log('Reading schema');"
								],
								"type": "text/javascript"
							}
						}
					],
					"request": {
						"method": "GET",
						"header": [],
						"body": {
							"mode": "raw",
							"raw": ""
						},
						"url": {
							"raw": "{{url}}api/schema",
							"host": [
								"{{url}}api"
							],
							"path": [
								"schema"
							]
						}
					},
					"response": []
				},
				{
					"name": "select first editable party",
					"event": [
						{
							"listen": "test",
							"script": {
								"id": "c0bdd69b-163c-4e5b-b1e9-5a6cf9d7ca3a",
								"exec": [
									"var jsonData = JSON.parse(responseBody);",
									"// find new party order",
									"if (!jsonData.length) {",
									"    console.log('user has no parties this week');",
									"} else {",
									"    var party = jsonData.find(function(item) {",
									"        return item.partyOrderState == 1;",
									"    });",
									"    if (party) {",
									"        pm.environment.set('partyOrderId', party.id); ",
									"        console.log('found new party order ' + party.id)",
									"    }",
									"}",
									"",
									""
								],
								"type": "text/javascript"
							}
						}
					],
					"request": {
						"auth": {
							"type": "bearer",
							"bearer": [
								{
									"key": "token",
									"value": "{{token}}",
									"type": "string"
								}
							]
						},
						"method": "POST",
						"header": [
							{
								"key": "Accept",
								"value": "application/json"
							},
							{
								"key": "Content-Type",
								"value": "application/x-www-form-urlencoded",
								"disabled": true
							}
						],
						"body": {
							"mode": "urlencoded",
							"urlencoded": [
								{
									"key": "weeksToPast",
									"value": "1",
									"type": "text"
								},
								{
									"key": "page",
									"value": "{{page}}",
									"type": "text",
									"disabled": true
								},
								{
									"key": "itemsPerPage",
									"value": "{{itemsPerPage}}",
									"type": "text",
									"disabled": true
								}
							]
						},
						"url": {
							"raw": "{{url}}api/v3/party-orders",
							"host": [
								"{{url}}api"
							],
							"path": [
								"v3",
								"party-orders"
							]
						},
						"description": "get list of party orders\n"
					},
					"response": []
				},
				{
					"name": "Add new guest to selected Party Order",
					"event": [
						{
							"listen": "test",
							"script": {
								"id": "fd51cd4d-dde5-44c9-8443-1665385ddfa1",
								"exec": [
									"console.log('guest added to ' + pm.variables.get('partyOrderId'));"
								],
								"type": "text/javascript"
							}
						}
					],
					"request": {
						"auth": {
							"type": "bearer",
							"bearer": [
								{
									"key": "token",
									"value": "{{token}}",
									"type": "string"
								}
							]
						},
						"method": "POST",
						"header": [
							{
								"key": "Accept",
								"value": "application/json, application/ld+json"
							},
							{
								"key": "Content-Type",
								"value": "application/ld+json"
							}
						],
						"body": {
							"mode": "raw",
							"raw": "[{\"contactId\":0,\"companyId\":0,\"invoice\":0,\"paymentMethod\":-1,\"partyOrderItems\":[]}]"
						},
						"url": {
							"raw": "{{url}}api/v3/party-order/{{partyOrderId}}/set-party-order-people",
							"host": [
								"{{url}}api"
							],
							"path": [
								"v3",
								"party-order",
								"{{partyOrderId}}",
								"set-party-order-people"
							]
						},
						"description": "Adds new guest to Party Order for current authorized user.\n"
					},
					"response": []
				},
				{
					"name": "Add product to selected Guest",
					"event": [
						{
							"listen": "test",
							"script": {
								"id": "9b6c10cc-0be5-4daa-9598-84753ac6ea44",
								"exec": [
									"console.log('product added to ' + pm.variables.get('guestId'));"
								],
								"type": "text/javascript"
							}
						}
					],
					"request": {
						"auth": {
							"type": "bearer",
							"bearer": [
								{
									"key": "token",
									"value": "{{token}}",
									"type": "string"
								}
							]
						},
						"method": "POST",
						"header": [
							{
								"key": "Accept",
								"value": "application/json, application/ld+json"
							},
							{
								"key": "Content-Type",
								"value": "application/json"
							}
						],
						"body": {
							"mode": "raw",
							"raw": "[\n\t{\n\t\t\"partyOrderPersonId\": {{guestId}},\n\t\t\"contactId\": 0,\n\t\t\"companyId\": 0,\n\t\t\"invoice\": 0,\n\t\t\"paymentMethod\": 0,\n\t\t\"partyOrderItems\": [\n\t\t\t{\n\t\t\t\t\"quantity\": 3,\n\t\t\t\t\"productId\": 617907,\n\t\t\t\t\"productType\": \"PRODUCT\",\n\t\t\t\t\"partyOrderItemType\": \"R1\",\n\t\t\t\t\"updatedAt\": 1577957471\n\t\t\t}\n\t\t]\n\t}\n]\n\n"
						},
						"url": {
							"raw": "{{url}}api/v3/party-order/{{partyOrderId}}/set-party-order-people",
							"host": [
								"{{url}}api"
							],
							"path": [
								"v3",
								"party-order",
								"{{partyOrderId}}",
								"set-party-order-people"
							]
						},
						"description": "Add\n"
					},
					"response": []
				},
				{
					"name": "Create Party Order PARTY HOME",
					"event": [
						{
							"listen": "prerequest",
							"script": {
								"id": "f87d378d-07c1-4e5c-8c1d-a112b5f267bf",
								"exec": [
									""
								],
								"type": "text/javascript"
							}
						},
						{
							"listen": "test",
							"script": {
								"id": "9b3a11d9-62a0-4768-8e78-4396d4218d38",
								"exec": [
									"console.log('party created');"
								],
								"type": "text/javascript"
							}
						}
					],
					"request": {
						"auth": {
							"type": "bearer",
							"bearer": [
								{
									"key": "token",
									"value": "{{token}}",
									"type": "string"
								}
							]
						},
						"method": "POST",
						"header": [
							{
								"key": "Accept",
								"value": "application/json, application/ld+json"
							},
							{
								"key": "Content-Type",
								"value": "application/x-www-form-urlencoded"
							}
						],
						"body": {
							"mode": "urlencoded",
							"urlencoded": [
								{
									"key": "typ",
									"value": "PARTY",
									"type": "text"
								},
								{
									"key": "typ2",
									"value": "HOME",
									"type": "text"
								},
								{
									"key": "teacherId",
									"value": "{{teacherId}}",
									"type": "text"
								}
							]
						},
						"url": {
							"raw": "https://api.twaaodev.svarba.sk/api/v3/party-order",
							"protocol": "https",
							"host": [
								"api",
								"twaaodev",
								"svarba",
								"sk"
							],
							"path": [
								"api",
								"v3",
								"party-order"
							]
						},
						"description": "Creates new Party Order for current authorized user.\n"
					},
					"response": []
				},
				{
					"name": "get party",
					"event": [
						{
							"listen": "test",
							"script": {
								"id": "23d24918-fa96-4cea-b5a4-8a9844412ee4",
								"exec": [
									"console.log('Reading partyorder ' +  pm.environment.get('partyOrderId'));"
								],
								"type": "text/javascript"
							}
						}
					],
					"protocolProfileBehavior": {
						"disableBodyPruning": true
					},
					"request": {
						"auth": {
							"type": "bearer",
							"bearer": [
								{
									"key": "token",
									"value": "{{token}}",
									"type": "string"
								}
							]
						},
						"method": "GET",
						"header": [],
						"body": {},
						"url": {
							"raw": "{{url}}api/v1/party-order/{{partyOrderId}}",
							"host": [
								"{{url}}api"
							],
							"path": [
								"v1",
								"party-order",
								"{{partyOrderId}}"
							]
						}
					},
					"response": []
				},
				{
					"name": "select first guest of selected party",
					"event": [
						{
							"listen": "test",
							"script": {
								"id": "23d24918-fa96-4cea-b5a4-8a9844412ee4",
								"exec": [
									"var partyId = pm.environment.get('partyOrderId');",
									"console.log('Reading partyorder ' +  partyId);",
									"",
									"var jsonData = JSON.parse(responseBody);",
									"// find guest",
									"if (!jsonData.partyOrderPeople['hydra:member']) {",
									"    console.log('party ' + partyId + ' has no guest yet');",
									"} else {",
									"    var person = jsonData.partyOrderPeople['hydra:member'].find(function(item) {",
									"        return item.partyorderGuestNo == 1;",
									"    });",
									"    pm.environment.set('guestId', person.id); ",
									"    console.log('guest ' + person.id + ' selected.')",
									"}",
									"",
									"",
									""
								],
								"type": "text/javascript"
							}
						}
					],
					"request": {
						"auth": {
							"type": "bearer",
							"bearer": [
								{
									"key": "token",
									"value": "{{token}}",
									"type": "string"
								}
							]
						},
						"method": "GET",
						"header": [
							{
								"key": "Content-Type",
								"value": "application/json",
								"type": "text"
							}
						],
						"body": {
							"mode": "raw",
							"raw": ""
						},
						"url": {
							"raw": "{{url}}api/v3/party-order/{{partyOrderId}}",
							"host": [
								"{{url}}api"
							],
							"path": [
								"v3",
								"party-order",
								"{{partyOrderId}}"
							]
						},
						"description": "http://api.tupperware.loc:8000/api/v1/party-order/597988/remove-item"
					},
					"response": []
				},
				{
					"name": "select first product item of selected guest",
					"event": [
						{
							"listen": "test",
							"script": {
								"id": "c2360423-78ba-42d4-adf8-df19c76883dd",
								"exec": [
									"console.log('Reading guest ' +  pm.environment.get('guestId'));",
									"",
									"var jsonData = JSON.parse(responseBody);",
									"// find guest",
									"var item = jsonData.partyOrderItems.find(function(item) {",
									"    return true;",
									"});",
									"console.log('saving first itemId ' + item.id);",
									"pm.environment.set('selected product itemId', item.id);",
									""
								],
								"type": "text/javascript"
							}
						}
					],
					"protocolProfileBehavior": {
						"disableBodyPruning": true
					},
					"request": {
						"auth": {
							"type": "bearer",
							"bearer": [
								{
									"key": "token",
									"value": "{{token}}",
									"type": "string"
								}
							]
						},
						"method": "GET",
						"header": [],
						"body": {
							"mode": "raw",
							"raw": ""
						},
						"url": {
							"raw": "{{url}}api/party_order_people/{{guestId}}",
							"host": [
								"{{url}}api"
							],
							"path": [
								"party_order_people",
								"{{guestId}}"
							]
						}
					},
					"response": []
				},
				{
					"name": "get checks of selected party order",
					"event": [
						{
							"listen": "test",
							"script": {
								"id": "f9a40a2a-2e9d-493b-b5b2-92e19cc7c9fd",
								"exec": [
									"console.log('Reading checks for party ' +  pm.environment.get('partyOrderId'));"
								],
								"type": "text/javascript"
							}
						}
					],
					"request": {
						"auth": {
							"type": "bearer",
							"bearer": [
								{
									"key": "token",
									"value": "{{token}}",
									"type": "string"
								}
							]
						},
						"method": "GET",
						"header": [],
						"body": {
							"mode": "raw",
							"raw": ""
						},
						"url": {
							"raw": "{{url}}api/v1/party-order/{{partyOrderId}}/checks",
							"host": [
								"{{url}}api"
							],
							"path": [
								"v1",
								"party-order",
								"{{partyOrderId}}",
								"checks"
							]
						}
					},
					"response": []
				},
				{
					"name": "send selected party to state sent",
					"event": [
						{
							"listen": "test",
							"script": {
								"id": "cc04a1a5-7efe-4f32-a101-278a3882b700",
								"exec": [
									"console.log('Sending party ' +  pm.environment.get('partyOrderId') + ' to state sent');"
								],
								"type": "text/javascript"
							}
						}
					],
					"request": {
						"auth": {
							"type": "bearer",
							"bearer": [
								{
									"key": "token",
									"value": "{{token}}",
									"type": "string"
								}
							]
						},
						"method": "PATCH",
						"header": [
							{
								"key": "Accept",
								"value": "application/json",
								"type": "text"
							},
							{
								"key": "Content-Type",
								"value": "application/json",
								"type": "text"
							}
						],
						"body": {
							"mode": "raw",
							"raw": "{  \n\t\"inPartyOrderStateID\": 2\n}"
						},
						"url": {
							"raw": "{{url}}api/v1/party-order/{{partyOrderId}}/set-data",
							"host": [
								"{{url}}api"
							],
							"path": [
								"v1",
								"party-order",
								"{{partyOrderId}}",
								"set-data"
							]
						}
					},
					"response": []
				},
				{
					"name": "change contact of selected guest",
					"event": [
						{
							"listen": "test",
							"script": {
								"id": "31e14d87-d3fd-4ee2-8dfc-09230bbfa8a2",
								"exec": [
									"console.log('setting contact for guest ' +  pm.variables.get('guestId'));"
								],
								"type": "text/javascript"
							}
						}
					],
					"request": {
						"auth": {
							"type": "bearer",
							"bearer": [
								{
									"key": "token",
									"value": "{{token}}",
									"type": "string"
								}
							]
						},
						"method": "POST",
						"header": [],
						"body": {
							"mode": "raw",
							"raw": "[{\"partyOrderPersonId\":{{guestId}},\"contactId\":1887,\"partyOrderItems\":[]}]"
						},
						"url": {
							"raw": "{{url}}api/v3/party-order/{{partyOrderId}}/set-party-order-people",
							"host": [
								"{{url}}api"
							],
							"path": [
								"v3",
								"party-order",
								"{{partyOrderId}}",
								"set-party-order-people"
							]
						}
					},
					"response": []
				},
				{
					"name": "remove selected guest",
					"event": [
						{
							"listen": "test",
							"script": {
								"id": "479b5371-3b1a-4acd-bd31-6afb1fff5267",
								"exec": [
									"console.log('Removing guest ' +  pm.variables.get('guestId'));"
								],
								"type": "text/javascript"
							}
						}
					],
					"request": {
						"auth": {
							"type": "bearer",
							"bearer": [
								{
									"key": "token",
									"value": "{{token}}",
									"type": "string"
								}
							]
						},
						"method": "POST",
						"header": [],
						"body": {
							"mode": "raw",
							"raw": "{  \n\t\"partyOrderPeople\": [\n\t\t{{guestId}}\n\t]\n}"
						},
						"url": {
							"raw": "{{url}}api/v1/party-order/{{partyOrderId}}/remove-item",
							"host": [
								"{{url}}api"
							],
							"path": [
								"v1",
								"party-order",
								"{{partyOrderId}}",
								"remove-item"
							]
						}
					},
					"response": []
				},
				{
					"name": "remove selected product item",
					"event": [
						{
							"listen": "test",
							"script": {
								"id": "479b5371-3b1a-4acd-bd31-6afb1fff5267",
								"exec": [
									"console.log('Removing item ' +  pm.variables.get('itemId'));"
								],
								"type": "text/javascript"
							}
						}
					],
					"request": {
						"auth": {
							"type": "bearer",
							"bearer": [
								{
									"key": "token",
									"value": "{{token}}",
									"type": "string"
								}
							]
						},
						"method": "POST",
						"header": [],
						"body": {
							"mode": "raw",
							"raw": "{  \n\t\"partyOrderItems\": [\n\t\t{{itemId}}\n\t]\n}"
						},
						"url": {
							"raw": "{{url}}api/v1/party-order/{{partyOrderId}}/remove-item",
							"host": [
								"{{url}}api"
							],
							"path": [
								"v1",
								"party-order",
								"{{partyOrderId}}",
								"remove-item"
							]
						}
					},
					"response": []
				}
			]
		}
	],
	"event": [
		{
			"listen": "prerequest",
			"script": {
				"id": "4f309234-e434-42d7-8502-70c9822361d4",
				"type": "text/javascript",
				"exec": [
					""
				]
			}
		},
		{
			"listen": "test",
			"script": {
				"id": "0f652e7c-117c-4026-b6d3-fc929ca81449",
				"type": "text/javascript",
				"exec": [
					""
				]
			}
		}
	],
	"variable": [
		{
			"id": "9c1b6e03-2e17-400d-99e9-a6bcc590d765",
			"key": "partyOrderId",
			"value": "",
			"type": "string"
		}
	]
}