{
	"id": "2cd534b2-b543-4150-b5df-76653f74abdc",
	"name": "tupperware",
	"values": [
		{
			"key": "guestId",
			"value": 1868309,
			"enabled": false
		},
		{
			"key": "itemId",
			"value": "",
			"enabled": false
		},
		{
			"key": "token",
			"value": null,
			"enabled": true
		},
		{
			"key": "partyOrderId",
			"value": "731579",
			"description": {
				"content": "",
				"type": "text/plain"
			},
			"enabled": true
		},
		{
			"key": "url",
			"value": "https://api.twaaodev.svarba.sk/",
			"description": {
				"content": "",
				"type": "text/plain"
			},
			"enabled": true
		},
		{
			"key": "i_u",
			"value": "101",
			"description": "",
			"enabled": true
		},
		{
			"key": "pwd",
			"value": "testtest",
			"description": "",
			"enabled": true
		},
		{
			"key": "selected guestId - ",
			"value": "",
			"enabled": false
		},
		{
			"key": "guestId",
			"value": "",
			"enabled": true
		}
	],
	"_postman_variable_scope": "environment",
	"_postman_exported_at": "2020-01-02T10:02:12.093Z",
	"_postman_exported_using": "Postman/6.7.4"
}